{
  "project_info": {
    "project_number": "643371850822",
    "firebase_url": "https://chat-da2bd.firebaseio.com",
    "project_id": "chat-da2bd",
    "storage_bucket": "chat-da2bd.appspot.com"
  },
  "client": [
    {
      "client_info": {
        "mobilesdk_app_id": "1:643371850822:android:d78ca7eb18c5e102",
        "android_client_info": {
          "package_name": "com.newfarm.chat"
        }
      },
      "oauth_client": [
        {
          "client_id": "643371850822-1ckg23n4bunpbhi2agn6f5212idfddpb.apps.googleusercontent.com",
          "client_type": 1,
          "android_info": {
            "package_name": "com.newfarm.chat",
            "certificate_hash": "823234ab22c2f9f64676c87cf1ec4eed51bda650"
          }
        },
        {
          "client_id": "643371850822-36gpidnvmel4ps9r2hgbv0ip4g6ptiuq.apps.googleusercontent.com",
          "client_type": 3
        }
      ],
      "api_key": [
        {
          "current_key": "AIzaSyDl3gfLh1vkzv7ekW8jk5KNm8j3m6QCt6M"
        }
      ],
      "services": {
        "appinvite_service": {
          "other_platform_oauth_client": [
            {
              "client_id": "643371850822-36gpidnvmel4ps9r2hgbv0ip4g6ptiuq.apps.googleusercontent.com",
              "client_type": 3
            }
          ]
        }
      }
    },
    {
      "client_info": {
        "mobilesdk_app_id": "1:643371850822:android:4e470249a7425194",
        "android_client_info": {
          "package_name": "com.newfarm.chats"
        }
      },
      "oauth_client": [
        {
          "client_id": "643371850822-36gpidnvmel4ps9r2hgbv0ip4g6ptiuq.apps.googleusercontent.com",
          "client_type": 3
        }
      ],
      "api_key": [
        {
          "current_key": "AIzaSyDl3gfLh1vkzv7ekW8jk5KNm8j3m6QCt6M"
        }
      ],
      "services": {
        "appinvite_service": {
          "other_platform_oauth_client": [
            {
              "client_id": "643371850822-36gpidnvmel4ps9r2hgbv0ip4g6ptiuq.apps.googleusercontent.com",
              "client_type": 3
            }
          ]
        }
      }
    }
  ],
  "configuration_version": "1"
}